SMS Server; SOUNDBOSS.cz
C:\Users\soukup\Documents\Visual Studio 2008\Projects\SMS_Server\SMS_Server\bin\Release\SMS_Server.exe; Version: 1.5.2.19091 (152)
27.5.2008 11:36:30
AU site: http://au.ladasoukup.cz/SMS_Server/

Nepodařilo se kontaktovat AutoUpdate.
Files to update: 0